Sen de yaz yaz yaz R Markdown ile her istediğini
…
<img src="img/metro.jpg" width="30%" style="display: block; margin: auto;" />

.footnote[Fotoğrafın  (CC BY 2.0) lisansı [t-mizo](https://www.flickr.com/photos/tmizo/7622107930/in/photolist-cBxi8Y-MUWrm-baLoXt-s1xpCk-AecPrJ-a3xdzR-2KMoC-dYSfc3-6ccgek-a3A5eN-AcDqUP-9tt9mD-aACVoF-5jfgYH-5ohiY-9QfYh7-9tt9ue-fcyRqm-Jf9TX-aKinvc-Jf9Ti-5SFHBs-vf9J8y-BDTGX3-TGaxZw-am9SZ-bCdVaU-hYdMq5-g7Qwo-5t3fuP-NfKcx-4uD2q-99DYLL-TErGso-9tt9Br-pNHD5R-bo5RRN-mx5dHp-5QXXGy-a2CznS-xwVX1g-2h6Aix8-6dUJVB-gQAbw-2h6AiuT-5MmoJC-7mULDr-CoPCTG-aFCEpk-NfK9S)'ya aittir.]

---

## Veri

```r
yolculuk
```

```
## # A tibble: 30 x 2
##      yil m1_hatti
##    <dbl>    <dbl>
##  1  1989   993742
##  2  1990 11659369
##  3  1991 15336734
##  4  1992 17991036
##  5  1993 14068062
##  6  1994 23336883
##  7  1995 34042320
##  8  1996 45400191
##  9  1997 54099681
## 10  1998 56906437
## # ... with 20 more rows
```
…
